mosby.vcd
$date
	Wed Jul  3 12:24:18 2024
$end
$version
	Icarus Verilog
$end
$timescale
	1ps
$end
$scope module mosby_tb $end
$scope module pro $end
$var wire 1 ! clk $end
$var wire 8 " data_status [7:0] $end
$var wire 1 # rst $end
$var wire 8 $ status [7:0] $end
$var wire 1 % y_con $end
$var wire 1 & x_con $end
$var wire 1 ' w_rd $end
$var wire 1 ( status_con $end
$var wire 1 ) stack_pointer_con $end
$var wire 1 * pc_increment $end
$var wire 1 + pc_inc_decoder $end
$var wire 1 , pc_data $end
$var wire 2 - operand_mux_con [1:0] $end
$var wire 8 . operand_2 [7:0] $end
$var wire 1 / normal $end
$var wire 1 0 lower_byte_decoder $end
$var wire 1 1 lower_byte $end
$var wire 1 2 hit $end
$var wire 8 3 data_out_y [7:0] $end
$var wire 8 4 data_out_x [7:0] $end
$var wire 8 5 data_out_status [7:0] $end
$var wire 8 6 data_out_sp [7:0] $end
$var wire 8 7 data_out_accumulator [7:0] $end
$var wire 8 8 data_bus [7:0] $end
$var wire 8 9 data_alu_result [7:0] $end
$var wire 1 : clk_2 $end
$var wire 1 ; clk_1 $end
$var wire 1 < branch_uncon $end
$var wire 3 = branch_op [2:0] $end
$var wire 1 > branch_con $end
$var wire 1 ? branch $end
$var wire 4 @ alu_op [3:0] $end
$var wire 16 A address [15:0] $end
$var wire 1 B accumulator_con $end
$upscope $end
$upscope $end
$enddefinitions $end
#0
$dumpvars
xB
bx A
bx @
x?
x>
bx =
x<
x;
x:
bx 9
bx 8
bx 7
bx 6
bx 5
bx 4
bx 3
x2
x1
x0
x/
bx .
bx -
x,
x+
x*
x)
x(
x'
x&
x%
bz $
0#
bx "
0!
$end
#1
0?
b0 "
b0 9
0>
0<
b1011 @
0)
0(
0B
0%
0&
1,
0'
b1111111111001010 A
b0 5
b0 6
b0 7
b0 3
b0 4
00
1+
0;
0:
01
0*
0/
02
1#
#2
0#
#5
b0 .
b0 8
12
1;
1!
#10
0!
#15
0;
1!
#20
0!
#25
1:
1!
#30
0!
#35
1*
11
0:
1!
#40
0!
#45
b1111111111001011 A
1;
1!
#50
0!
#55
0;
1!
#60
0!
#65
1:
1!
#70
0!
#75
1?
01
1/
0:
1!
#80
0!
#85
b0xx0x00x .
b1101001 8
b0 A
1;
1!
#90
0!
#95
0;
1!
#100
0!
#105
1:
1!
#110
0!
#115
b1101001 .
b0x0000z0 "
0?
b11 -
b1 @
0:
1!
#120
0!
#125
b11 .
b11 8
b1 A
1;
1!
#130
0!
#135
0;
1!
#140
0!
#145
b0 "
b11 9
1:
1!
#150
0!
#155
1(
1B
0:
1!
#160
0!
#165
b1101001 .
b1101001 8
b10 A
b11 7
1;
1!
#170
0!
#175
0;
1!
#180
0!
#185
b1101100 9
bx0000000 "
1:
1!
#190
0!
#195
0(
0B
0:
1!
#200
0!
#205
b100 .
b100 8
b11 A
1;
1!
#210
0!
#215
0;
1!
#220
0!
#225
b111 9
1:
1!
#230
0!
#235
1(
1B
0:
1!
#240
0!
#245
b0 .
b0 8
b100 A
bx0000000 5
b111 7
1;
1!
#250
0!
#255
0;
1!
#260
0!
#265
bx0000x0 "
bx 9
1:
1!
#270
0!
#275
bx0000000 "
bx -
b1011 @
0(
0B
0:
1!
#280
0!
#285
b101 A
1;
1!
#290
0!
#295
0;
1!
#300
0!
#305
b111 9
1:
1!
#310
0!
#315
0:
1!
#320
0!
#325
b110 A
1;
1!
#330
0!
#335
0;
1!
#340
0!
#345
1:
1!
#350
0!
#355
0:
1!
#360
0!
#365
b111 A
1;
1!
#370
0!
#375
0;
1!
#380
0!
#385
1:
1!
#390
0!
#395
0:
1!
#400
0!
#405
b1000 A
1;
1!
#410
0!
#415
0;
1!
#420
0!
#425
1:
1!
#430
0!
#435
0:
1!
#440
0!
#445
b1001 A
1;
1!
#450
0!
#455
0;
1!
#460
0!
#465
1:
1!
#470
0!
#475
0:
1!
#480
0!
#485
b1010 A
1;
1!
